1 22    333 4 555 6666   77 88 9999999
    1 2   3 4444 55555 666666 7777777 8 9
1 22 3333 4 5 66 7 88888888 999999999
  1 2 3  4 5 6 7 8 9
11 2222   33 4 5  66 777 8888 9
 11111111 222222 3333 4  5 6    7 8 9
